misc/articulos/impvl/src/mux/mux.vcd
$date
	Fri Dec  3 15:15:18 2004
$end
$version
	Icarus Verilog
$end
$timescale
	1s
$end
$scope module mux_tb $end
$var wire 1 ! muxout $end
$var reg 1 " muxin_0 $end
$var reg 1 # muxin_1 $end
$var reg 1 $ muxin_2 $end
$var reg 1 % muxin_3 $end
$var reg 1 & muxin_4 $end
$var reg 1 ' muxin_5 $end
$var reg 1 ( muxin_6 $end
$var reg 1 ) muxin_7 $end
$var reg 3 * sel[2:0] $end
$scope module U_mux $end
$var wire 1 " muxin_0 $end
$var wire 1 # muxin_1 $end
$var wire 1 $ muxin_2 $end
$var wire 1 % muxin_3 $end
$var wire 1 & muxin_4 $end
$var wire 1 ' muxin_5 $end
$var wire 1 ( muxin_6 $end
$var wire 1 ) muxin_7 $end
$var wire 3 + sel[2:0] $end
$var reg 1 ! muxout $end
$upscope $end
$upscope $end
$enddefinitions $end
#0
$dumpvars
b0 +
b0 *
0)
0(
0'
0&
0%
0$
0#
0"
0!
$end
#2
b1 *
b1 +
1"
#3
b10 *
b10 +
1#
#4
b11 *
b11 +
0"
1$
#5
b100 *
b100 +
1%
#6
b101 *
b101 +
1"
0#
1&
#7
b110 *
b110 +
1'
#8
b111 *
b111 +
0"
0$
1(
#9
b0 *
b0 +
1#
1)
#10
1!
b1 *
b1 +
1"
0%
#11
0!
b10 *
b10 +
#12
b11 *
b11 +
0"
0#
1$
0&
#13
b100 *
b100 +
#14
b101 *
b101 +
1"
0'
#15
1!
b110 *
b110 +
1#
1%
#16
b111 *
b111 +
0"
0$
0(
#17
0!
b0 *
b0 +
#18
b1 *
b1 +
1"
0#
1&
0)
#19
b10 *
b10 +
#20
b11 *
b11 +
0"
1$
0%
#21
1!
b100 *
b100 +
1#
1'
#22
b101 *
b101 +
1"
#23
0!
b110 *
b110 +
#24
b111 *
b111 +
0"
0#
0$
0&
1(
#25
b0 *
b0 +
1%
#26
b1 *
b1 +
1"
#27
b10 *
b10 +
1#
1)
#28
1!
b11 *
b11 +
0"
1$
0'
#29
0!
b100 *
b100 +
#30
b101 *
b101 +
1"
0#
0%
1&
#31
1!
b110 *
b110 +
#32
b111 *
b111 +
0"
0$
0(
#33
0!
b0 *
b0 +
1#
#34
1!
b1 *
b1 +
1"
#35
0!
b10 *
b10 +
1%
1'
#36
1!
b11 *
b11 +
0"
0#
1$
0&
0)
#37
0!
b100 *
b100 +
#38
1!
b101 *
b101 +
1"
#39
0!
b110 *
b110 +
1#
#40
b111 *
b111 +
0"
0$
0%
1(
#41
b0 *
b0 +
#42
b1 *
b1 +
1"
0#
1&
0'
#43
b10 *
b10 +
#44
b11 *
b11 +
0"
1$
#45
1!
b100 *
b100 +
1#
1%
1)
#46
0!
b101 *
b101 +
1"
#47
1!
b110 *
b110 +
#48
b111 *
b111 +
0"
0#
0$
0&
0(
#49
0!
b0 *
b0 +
1'
#50
b1 *
b1 +
1"
0%
#51
b10 *
b10 +
1#
#52
b11 *
b11 +
0"
1$
#53
b100 *
b100 +
#54
1!
b101 *
b101 +
1"
0#
1&
0)
#55
0!
b110 *
b110 +
1%
#56
b111 *
b111 +
0"
0$
0'
1(
#57
b0 *
b0 +
1#
#58
1!
b1 *
b1 +
1"
#59
0!
b10 *
b10 +
#60
b11 *
b11 +
0"
0#
1$
0%
0&
#61
b100 *
b100 +
#62
b101 *
b101 +
1"
#63
1!
b110 *
b110 +
1#
1'
1)
#64
b111 *
b111 +
0"
0$
0(
#65
0!
b0 *
b0 +
1%
#66
b1 *
b1 +
1"
0#
1&
#67
b10 *
b10 +
#68
1!
b11 *
b11 +
0"
1$
#69
b100 *
b100 +
1#
#70
0!
b101 *
b101 +
1"
0%
0'
#71
b110 *
b110 +
#72
b111 *
b111 +
0"
0#
0$
0&
1(
0)
#73
b0 *
b0 +
#74
b1 *
b1 +
1"
#75
b10 *
b10 +
1#
1%
#76
1!
b11 *
b11 +
0"
1$
#77
0!
b100 *
b100 +
1'
#78
1!
b101 *
b101 +
1"
0#
1&
#79
b110 *
b110 +
#80
0!
b111 *
b111 +
0"
0$
0%
0(
#81
b0 *
b0 +
1#
1)
#82
1!
b1 *
b1 +
1"
#83
0!
b10 *
b10 +
#84
b11 *
b11 +
0"
0#
1$
0&
0'
#85
b100 *
b100 +
1%
#86
b101 *
b101 +
1"
#87
b110 *
b110 +
1#
#88
1!
b111 *
b111 +
0"
0$
1(
#89
0!
b0 *
b0 +
#90
b1 *
b1 +
1"
0#
0%
1&
0)
#91
b10 *
b10 +
1'
#92
b11 *
b11 +
0"
1$
#93
1!
b100 *
b100 +
1#
#94
b101 *
b101 +
1"
#95
b110 *
b110 +
1%
#96
0!
b111 *
b111 +
0"
0#
0$
0&
0(
#97
b0 *
b0 +
#98
b1 *
b1 +
1"
0'
#99
b10 *
b10 +
1#
1)
#100
b11 *
b11 +
0"
1$
0%
#101
b100 *
b100 +
#102
b101 *
b101 +
1"
0#
1&
#103
b110 *
b110 +
#104
1!
b111 *
b111 +
0"
0$
1(
#105
0!
b0 *
b0 +
1#
1%
1'
#106
1!
b1 *
b1 +
1"
#107
0!
b10 *
b10 +
#108
1!
b11 *
b11 +
0"
0#
1$
0&
0)
#109
0!
b100 *
b100 +
#110
1!
b101 *
b101 +
1"
0%
#111
b110 *
b110 +
1#
#112
0!
b111 *
b111 +
0"
0$
0'
0(
#113
b0 *
b0 +
#114
b1 *
b1 +
1"
0#
1&
#115
b10 *
b10 +
1%
#116
1!
b11 *
b11 +
0"
1$
#117
b100 *
b100 +
1#
1)
#118
0!
b101 *
b101 +
1"
#119
b110 *
b110 +
1'
#120
1!
b111 *
b111 +
0"
0#
0$
0%
0&
1(
#121
0!
b0 *
b0 +
#122
b1 *
b1 +
1"
#123
b10 *
b10 +
1#
#124
b11 *
b11 +
0"
1$
#125
b100 *
b100 +
1%
#126
b101 *
b101 +
1"
0#
1&
0'
0)
#127
1!
b110 *
b110 +
#128
0!
b111 *
b111 +
0"
0$
0(
#129
b0 *
b0 +
1#
#130
1!
b1 *
b1 +
1"
0%
#131
0!
b10 *
b10 +
#132
b11 *
b11 +
0"
0#
1$
0&
#133
b100 *
b100 +
1'
#134
1!
b101 *
b101 +
1"
#135
0!
b110 *
b110 +
1#
1%
1)
#136
1!
b111 *
b111 +
0"
0$
1(
#137
0!
b0 *
b0 +
#138
b1 *
b1 +
1"
0#
1&
#139
b10 *
b10 +
#140
b11 *
b11 +
0"
1$
0%
0'
#141
1!
b100 *
b100 +
1#
#142
0!
b101 *
b101 +
1"
#143
1!
b110 *
b110 +
#144
0!
b111 *
b111 +
0"
0#
0$
0&
0(
0)
#145
b0 *
b0 +
1%
#146
b1 *
b1 +
1"
#147
b10 *
b10 +
1#
1'
#148
1!
b11 *
b11 +
0"
1$
#149
0!
b100 *
b100 +
#150
1!
b101 *
b101 +
1"
0#
0%
1&
#151
0!
b110 *
b110 +
#152
b111 *
b111 +
0"
0$
1(
#153
b0 *
b0 +
1#
1)
#154
1!
b1 *
b1 +
1"
0'
#155
0!
b10 *
b10 +
1%
#156
1!
b11 *
b11 +
0"
0#
1$
0&
#157
0!
b100 *
b100 +
#158
b101 *
b101 +
1"
#159
1!
b110 *
b110 +
1#
#160
b111 *
b111 +
0"
0$
0%
0(
#161
0!
b0 *
b0 +
1'
#162
b1 *
b1 +
1"
0#
1&
0)
#163
b10 *
b10 +
#164
b11 *
b11 +
0"
1$
#165
1!
b100 *
b100 +
1#
1%
#166
b101 *
b101 +
1"
#167
0!
b110 *
b110 +
#168
b111 *
b111 +
0"
0#
0$
0&
0'
1(
#169
b0 *
b0 +
#170
b1 *
b1 +
1"
0%
#171
b10 *
b10 +
1#
1)
#172
b11 *
b11 +
0"
1$
#173
b100 *
b100 +
#174
b101 *
b101 +
1"
0#
1&
#175
1!
b110 *
b110 +
1%
1'
#176
b111 *
b111 +
0"
0$
0(
#177
0!
b0 *
b0 +
1#
#178
1!
b1 *
b1 +
1"
#179
0!
b10 *
b10 +
#180
b11 *
b11 +
0"
0#
1$
0%
0&
0)
#181
b100 *
b100 +
#182
b101 *
b101 +
1"
0'
#183
b110 *
b110 +
1#
#184
b111 *
b111 +
0"
0$
1(
#185
b0 *
b0 +
1%
#186
b1 *
b1 +
1"
0#
1&
#187
b10 *
b10 +
#188
1!
b11 *
b11 +
0"
1$
#189
b100 *
b100 +
1#
1'
1)
#190
b101 *
b101 +
1"
0%
#191
b110 *
b110 +
#192
b111 *
b111 +
0"
0#
0$
0&
0(
#193
0!
b0 *
b0 +
#194
b1 *
b1 +
1"
#195
b10 *
b10 +
1#
1%
#196
1!
b11 *
b11 +
0"
1$
0'
#197
0!
b100 *
b100 +
#198
b101 *
b101 +
1"
0#
1&
0)
#199
b110 *
b110 +
#200
b111 *
b111 +
0"
0$
0%
1(
#201
b0 *
b0 +
1#
#202
1!
b1 *
b1 +
1"
#203
0!
b10 *
b10 +
1'
#204
b11 *
b11 +
0"
0#
1$
0&
#205
b100 *
b100 +
1%
#206
1!
b101 *
b101 +
1"
#207
b110 *
b110 +
1#
1)
#208
b111 *
b111 +
0"
0$
0(
#209
0!
b0 *
b0 +
#210
b1 *
b1 +
1"
0#
0%
1&
0'
#211
b10 *
b10 +
#212
b11 *
b11 +
0"
1$
#213
1!
b100 *
b100 +
1#
#214
0!
b101 *
b101 +
1"
#215
b110 *
b110 +
1%
#216
b111 *
b111 +
0"
0#
0$
0&
1(
0)
#217
b0 *
b0 +
1'
#218
b1 *
b1 +
1"
#219
b10 *
b10 +
1#
#220
b11 *
b11 +
0"
1$
0%
#221
b100 *
b100 +
#222
1!
b101 *
b101 +
1"
0#
1&
#223
b110 *
b110 +
#224
0!
b111 *
b111 +
0"
0$
0'
0(
#225
b0 *
b0 +
1#
1%
1)
#226
1!
b1 *
b1 +
1"
#227
0!
b10 *
b10 +
#228
1!
b11 *
b11 +
0"
0#
1$
0&
#229
0!
b100 *
b100 +
#230
b101 *
b101 +
1"
0%
#231
b110 *
b110 +
1#
1'
#232
1!
b111 *
b111 +
0"
0$
1(
#233
0!
b0 *
b0 +
#234
b1 *
b1 +
1"
0#
1&
0)
#235
b10 *
b10 +
1%
#236
1!
b11 *
b11 +
0"
1$
#237
b100 *
b100 +
1#
#238
0!
b101 *
b101 +
1"
0'
#239
1!
b110 *
b110 +
#240
0!
b111 *
b111 +
0"
0#
0$
0%
0&
0(
#241
b0 *
b0 +
#242
b1 *
b1 +
1"
#243
b10 *
b10 +
1#
1)
#244
b11 *
b11 +
0"
1$
#245
b100 *
b100 +
1%
1'
#246
1!
b101 *
b101 +
1"
0#
1&
#247
0!
b110 *
b110 +
#248
1!
b111 *
b111 +
0"
0$
1(
#249
0!
b0 *
b0 +
1#
#250
1!
b1 *
b1 +
1"
0%
#251
0!
b10 *
b10 +
#252
b11 *
b11 +
0"
0#
1$
0&
0'
0)
#253
b100 *
b100 +
#254
b101 *
b101 +
1"
#255
1!
b110 *
b110 +
1#
1%
#256
0!
b111 *
b111 +
0"
0$
0(
#257
b0 *
b0 +
#258
b1 *
b1 +
1"
0#
1&
#259
b10 *
b10 +
1'
#260
b11 *
b11 +
0"
1$
0%
#261
1!
b100 *
b100 +
1#
1)
#262
b101 *
b101 +
1"
#263
0!
b110 *
b110 +
#264
1!
b111 *
b111 +
0"
0#
0$
0&
1(
#265
0!
b0 *
b0 +
1%
#266
b1 *
b1 +
1"
0'
#267
b10 *
b10 +
1#
#268
1!
b11 *
b11 +
0"
1$
#269
0!
b100 *
b100 +
#270
b101 *
b101 +
1"
0#
0%
1&
0)
#271
1!
b110 *
b110 +
#272
0!
b111 *
b111 +
0"
0$
0(
#273
b0 *
b0 +
1#
1'
#274
1!
b1 *
b1 +
1"
#275
0!
b10 *
b10 +
1%
#276
1!
b11 *
b11 +
0"
0#
1$
0&
#277
0!
b100 *
b100 +
#278
1!
b101 *
b101 +
1"
#279
0!
b110 *
b110 +
1#
1)
#280
1!
b111 *
b111 +
0"
0$
0%
0'
1(
#281
0!
b0 *
b0 +
#282
b1 *
b1 +
1"
0#
1&
#283
b10 *
b10 +
#284
b11 *
b11 +
0"
1$
#285
1!
b100 *
b100 +
1#
1%
#286
0!
b101 *
b101 +
1"
#287
1!
b110 *
b110 +
1'
#288
0!
b111 *
b111 +
0"
0#
0$
0&
0(
0)
#289
b0 *
b0 +
#290
b1 *
b1 +
1"
0%
#291
b10 *
b10 +
1#
#292
b11 *
b11 +
0"
1$
#293
b100 *
b100 +
#294
b101 *
b101 +
1"
0#
1&
0'
#295
b110 *
b110 +
1%
#296
b111 *
b111 +
0"
0$
1(
#297
b0 *
b0 +
1#
1)
#298
1!
b1 *
b1 +
1"
#299
0!
b10 *
b10 +
#300
b11 *
b11 +
0"
0#
1$
0%
0&
#301
b100 *
b100 +
1'
#302
1!
b101 *
b101 +
1"
#303
b110 *
b110 +
1#
#304
b111 *
b111 +
0"
0$
0(
#305
0!
b0 *
b0 +
1%
#306
b1 *
b1 +
1"
0#
1&
0)
#307
b10 *
b10 +
#308
1!
b11 *
b11 +
0"
1$
0'
#309
b100 *
b100 +
1#
#310
0!
b101 *
b101 +
1"
0%
#311
b110 *
b110 +
#312
b111 *
b111 +
0"
0#
0$
0&
1(
#313
b0 *
b0 +
#314
b1 *
b1 +
1"
#315
b10 *
b10 +
1#
1%
1'
1)
#316
1!
b11 *
b11 +
0"
1$
#317
0!
b100 *
b100 +
#318
1!
b101 *
b101 +
1"
0#
1&
#319
b110 *
b110 +
#320
b111 *
b111 +
0"
0$
0%
0(
#321
0!
b0 *
b0 +
1#
#322
1!
b1 *
b1 +
1"
0'
#323
0!
b10 *
b10 +
#324
b11 *
b11 +
0"
0#
1$
0&
0)
#325
b100 *
b100 +
1%
#326
b101 *
b101 +
1"
#327
b110 *
b110 +
1#
#328
b111 *
b111 +
0"
0$
1(
#329
b0 *
b0 +
1'
#330
b1 *
b1 +
1"
0#
0%
1&
#331
b10 *
b10 +
#332
b11 *
b11 +
0"
1$
#333
1!
b100 *
b100 +
1#
1)
#334
b101 *
b101 +
1"
#335
b110 *
b110 +
1%
#336
b111 *
b111 +
0"
0#
0$
0&
0'
0(
#337
0!
b0 *
b0 +
#338
b1 *
b1 +
1"
#339
b10 *
b10 +
1#
#340
b11 *
b11 +
0"
1$
0%
#341
b100 *
b100 +
#342
b101 *
b101 +
1"
0#
1&
0)
#343
b110 *
b110 +
1'
#344
b111 *
b111 +
0"
0$
1(
#345
b0 *
b0 +
1#
1%
#346
1!
b1 *
b1 +
1"
#347
0!
b10 *
b10 +
#348
1!
b11 *
b11 +
0"
0#
1$
0&
#349
0!
b100 *
b100 +
#350
b101 *
b101 +
1"
0%
0'
#351
1!
b110 *
b110 +
1#
1)
#352
b111 *
b111 +
0"
0$
0(
#353
0!
b0 *
b0 +
#354
b1 *
b1 +
1"
0#
1&
#355
b10 *
b10 +
1%
#356
1!
b11 *
b11 +
0"
1$
#357
b100 *
b100 +
1#
1'
#358
b101 *
b101 +
1"
#359
0!
b110 *
b110 +
#360
b111 *
b111 +
0"
0#
0$
0%
0&
1(
0)
#361
b0 *
b0 +
#362
b1 *
b1 +
1"
#363
b10 *
b10 +
1#
#364
b11 *
b11 +
0"
1$
0'
#365
b100 *
b100 +
1%
#366
b101 *
b101 +
1"
0#
1&
#367
1!
b110 *
b110 +
#368
0!
b111 *
b111 +
0"
0$
0(
#369
b0 *
b0 +
1#
1)
#370
1!
b1 *
b1 +
1"
0%
#371
0!
b10 *
b10 +
1'
#372
b11 *
b11 +
0"
0#
1$
0&
#373
b100 *
b100 +
#374
1!
b101 *
b101 +
1"
#375
0!
b110 *
b110 +
1#
1%
#376
1!
b111 *
b111 +
0"
0$
1(
#377
0!
b0 *
b0 +
#378
b1 *
b1 +
1"
0#
1&
0'
0)
#379
b10 *
b10 +
#380
b11 *
b11 +
0"
1$
0%
#381
1!
b100 *
b100 +
1#
#382
0!
b101 *
b101 +
1"
#383
1!
b110 *
b110 +
#384
0!
b111 *
b111 +
0"
0#
0$
0&
0(
#385
b0 *
b0 +
1%
1'
#386
b1 *
b1 +
1"
#387
b10 *
b10 +
1#
1)
#388
1!
b11 *
b11 +
0"
1$
#389
0!
b100 *
b100 +
#390
1!
b101 *
b101 +
1"
0#
0%
1&
#391
0!
b110 *
b110 +
#392
1!
b111 *
b111 +
0"
0$
0'
1(
#393
0!
b0 *
b0 +
1#
#394
1!
b1 *
b1 +
1"
#395
0!
b10 *
b10 +
1%
#396
1!
b11 *
b11 +
0"
0#
1$
0&
0)
#397
0!
b100 *
b100 +
#398
b101 *
b101 +
1"
#399
1!
b110 *
b110 +
1#
1'
#400
0!
b111 *
b111 +
0"
0$
0%
0(
#401
b0 *
b0 +
#402
b1 *
b1 +
1"
0#
1&
#403
b10 *
b10 +
#404
b11 *
b11 +
0"
1$
#405
1!
b100 *
b100 +
1#
1%
1)
#406
0!
b101 *
b101 +
1"
0'
#407
b110 *
b110 +
#408
1!
b111 *
b111 +
0"
0#
0$
0&
1(
#409
0!
b0 *
b0 +
#410
b1 *
b1 +
1"
0%
#411
b10 *
b10 +
1#
#412
b11 *
b11 +
0"
1$
#413
b100 *
b100 +
1'
#414
1!
b101 *
b101 +
1"
0#
1&
0)
#415
b110 *
b110 +
1%
#416
0!
b111 *
b111 +
0"
0$
0(
#417
b0 *
b0 +
1#
#418
1!
b1 *
b1 +
1"
#419
0!
b10 *
b10 +
#420
b11 *
b11 +
0"
0#
1$
0%
0&
0'
#421
b100 *
b100 +
#422
b101 *
b101 +
1"
#423
b110 *
b110 +
1#
1)
#424
1!
b111 *
b111 +
0"
0$
1(
#425
0!
b0 *
b0 +
1%
#426
b1 *
b1 +
1"
0#
1&
#427
b10 *
b10 +
1'
#428
1!
b11 *
b11 +
0"
1$
#429
b100 *
b100 +
1#
#430
b101 *
b101 +
1"
0%
#431
b110 *
b110 +
#432
0!
b111 *
b111 +
0"
0#
0$
0&
0(
0)
#433
b0 *
b0 +
#434
b1 *
b1 +
1"
0'
#435
b10 *
b10 +
1#
1%
#436
1!
b11 *
b11 +
0"
1$
#437
0!
b100 *
b100 +
#438
b101 *
b101 +
1"
0#
1&
#439
b110 *
b110 +
#440
b111 *
b111 +
0"
0$
0%
1(
#441
b0 *
b0 +
1#
1'
1)
#442
1!
b1 *
b1 +
1"
#443
0!
b10 *
b10 +
#444
b11 *
b11 +
0"
0#
1$
0&
#445
b100 *
b100 +
1%
#446
1!
b101 *
b101 +
1"
#447
b110 *
b110 +
1#
#448
b111 *
b111 +
0"
0$
0'
0(
#449
0!
b0 *
b0 +
#450
b1 *
b1 +
1"
0#
0%
1&
0)
#451
b10 *
b10 +
#452
b11 *
b11 +
0"
1$
#453
1!
b100 *
b100 +
1#
#454
0!
b101 *
b101 +
1"
#455
b110 *
b110 +
1%
1'
#456
b111 *
b111 +
0"
0#
0$
0&
1(
#457
b0 *
b0 +
#458
b1 *
b1 +
1"
#459
b10 *
b10 +
1#
1)
#460
b11 *
b11 +
0"
1$
0%
#461
b100 *
b100 +
#462
b101 *
b101 +
1"
0#
1&
0'
#463
1!
b110 *
b110 +
#464
b111 *
b111 +
0"
0$
0(
#465
0!
b0 *
b0 +
1#
1%
#466
1!
b1 *
b1 +
1"
#467
0!
b10 *
b10 +
#468
1!
b11 *
b11 +
0"
0#
1$
0&
0)
#469
0!
b100 *
b100 +
1'
#470
1!
b101 *
b101 +
1"
0%
#471
0!
b110 *
b110 +
1#
#472
b111 *
b111 +
0"
0$
1(
#473
b0 *
b0 +
#474
b1 *
b1 +
1"
0#
1&
#475
b10 *
b10 +
1%
#476
1!
b11 *
b11 +
0"
1$
0'
#477
b100 *
b100 +
1#
1)
#478
0!
b101 *
b101 +
1"
#479
1!
b110 *
b110 +
#480
b111 *
b111 +
0"
0#
0$
0%
0&
0(
#481
0!
b0 *
b0 +
#482
b1 *
b1 +
1"
#483
b10 *
b10 +
1#
1'
#484
b11 *
b11 +
0"
1$
#485
b100 *
b100 +
1%
#486
1!
b101 *
b101 +
1"
0#
1&
0)
#487
0!
b110 *
b110 +
#488
b111 *
b111 +
0"
0$
1(
#489
b0 *
b0 +
1#
#490
1!
b1 *
b1 +
1"
0%
0'
#491
0!
b10 *
b10 +
#492
b11 *
b11 +
0"
0#
1$
0&
#493
b100 *
b100 +
#494
b101 *
b101 +
1"
#495
1!
b110 *
b110 +
1#
1%
1)
#496
b111 *
b111 +
0"
0$
0(
#497
0!
b0 *
b0 +
1'
#498
b1 *
b1 +
1"
0#
1&
#499
b10 *
b10 +
#500
b11 *
b11 +
0"
1$
0%
#501
1!
b100 *
b100 +
1#
#502
b101 *
b101 +
1"
#503
0!
b110 *
b110 +
#504
b111 *
b111 +
0"
0#
0$
0&
0'
1(
0)
#505
b0 *
b0 +
1%
#506
b1 *
b1 +
1"
#507
b10 *
b10 +
1#
#508
1!
b11 *
b11 +
0"
1$
#509
0!
b100 *
b100 +
#510
b101 *
b101 +
1"
0#
0%
1&
#511
1!
b110 *
b110 +
1'
#512
0!
b111 *
b111 +
0"
0$
0(
#513
b0 *
b0 +
1#
1)
#514
1!
b1 *
b1 +
1"
#515
0!
b10 *
b10 +
1%
#516
1!
b11 *
b11 +
0"
0#
1$
0&
#517
0!
b100 *
b100 +
#518
b101 *
b101 +
1"
0'
#519
b110 *
b110 +
1#
#520
1!
b111 *
b111 +
0"
0$
0%
1(
#521
0!
b0 *
b0 +
#522
b1 *
b1 +
1"
0#
1&
0)
#523
b10 *
b10 +
#524
b11 *
b11 +
0"
1$
#525
1!
b100 *
b100 +
1#
1%
1'
#526
b101 *
b101 +
1"
#527
b110 *
b110 +
#528
0!
b111 *
b111 +
0"
0#
0$
0&
0(
#529
b0 *
b0 +
#530
b1 *
b1 +
1"
0%
#531
b10 *
b10 +
1#
1)
#532
b11 *
b11 +
0"
1$
0'
#533
b100 *
b100 +
#534
b101 *
b101 +
1"
0#
1&
#535
b110 *
b110 +
1%
#536
1!
b111 *
b111 +
0"
0$
1(
#537
0!
b0 *
b0 +
1#
#538
1!
b1 *
b1 +
1"
#539
0!
b10 *
b10 +
1'
#540
b11 *
b11 +
0"
0#
1$
0%
0&
0)
#541
b100 *
b100 +
#542
1!
b101 *
b101 +
1"
#543
b110 *
b110 +
1#
#544
0!
b111 *
b111 +
0"
0$
0(
#545
b0 *
b0 +
1%
#546
b1 *
b1 +
1"
0#
1&
0'
#547
b10 *
b10 +
#548
1!
b11 *
b11 +
0"
1$
#549
b100 *
b100 +
1#
1)
#550
0!
b101 *
b101 +
1"
0%
#551
b110 *
b110 +
#552
1!
b111 *
b111 +
0"
0#
0$
0&
1(
#553
0!
b0 *
b0 +
1'
#554
b1 *
b1 +
1"
#555
b10 *
b10 +
1#
1%
#556
1!
b11 *
b11 +
0"
1$
#557
0!
b100 *
b100 +
#558
1!
b101 *
b101 +
1"
0#
1&
0)
#559
b110 *
b110 +
#560
0!
b111 *
b111 +
0"
0$
0%
0'
0(
#561
b0 *
b0 +
1#
#562
1!
b1 *
b1 +
1"
#563
0!
b10 *
b10 +
#564
b11 *
b11 +
0"
0#
1$
0&
#565
b100 *
b100 +
1%
#566
b101 *
b101 +
1"
#567
b110 *
b110 +
1#
1'
1)
#568
1!
b111 *
b111 +
0"
0$
1(
#569
0!
b0 *
b0 +
#570
b1 *
b1 +
1"
0#
0%
1&
#571
b10 *
b10 +
#572
b11 *
b11 +
0"
1$
#573
1!
b100 *
b100 +
1#
#574
0!
b101 *
b101 +
1"
0'
#575
1!
b110 *
b110 +
1%
#576
0!
b111 *
b111 +
0"
0#
0$
0&
0(
0)
#577
b0 *
b0 +
#578
b1 *
b1 +
1"
#579
b10 *
b10 +
1#
#580
b11 *
b11 +
0"
1$
0%
#581
b100 *
b100 +
1'
#582
1!
b101 *
b101 +
1"
0#
1&
#583
0!
b110 *
b110 +
#584
b111 *
b111 +
0"
0$
1(
#585
b0 *
b0 +
1#
1%
1)
#586
1!
b1 *
b1 +
1"
#587
0!
b10 *
b10 +
#588
1!
b11 *
b11 +
0"
0#
1$
0&
0'
#589
0!
b100 *
b100 +
#590
b101 *
b101 +
1"
0%
#591
1!
b110 *
b110 +
1#
#592
b111 *
b111 +
0"
0$
0(
#593
0!
b0 *
b0 +
#594
b1 *
b1 +
1"
0#
1&
0)
#595
b10 *
b10 +
1%
1'
#596
1!
b11 *
b11 +
0"
1$
#597
b100 *
b100 +
1#
#598
b101 *
b101 +
1"
#599
0!
b110 *
b110 +
#600
b111 *
b111 +
0"
0#
0$
0%
0&
1(
#601
b0 *
b0 +
#602
b1 *
b1 +
1"
0'
#603
b10 *
b10 +
1#
1)
#604
b11 *
b11 +
0"
1$
#605
b100 *
b100 +
1%
#606
b101 *
b101 +
1"
0#
1&
#607
1!
b110 *
b110 +
#608
b111 *
b111 +
0"
0$
0(
#609
0!
b0 *
b0 +
1#
1'
#610
1!
b1 *
b1 +
1"
0%
#611
0!
b10 *
b10 +
#612
b11 *
b11 +
0"
0#
1$
0&
0)
#613
b100 *
b100 +
#614
1!
b101 *
b101 +
1"
#615
0!
b110 *
b110 +
1#
1%
#616
b111 *
b111 +
0"
0$
0'
1(
#617
b0 *
b0 +
#618
b1 *
b1 +
1"
0#
1&
#619
b10 *
b10 +
#620
b11 *
b11 +
0"
1$
0%
#621
1!
b100 *
b100 +
1#
1)
#622
0!
b101 *
b101 +
1"
#623
1!
b110 *
b110 +
1'
#624
b111 *
b111 +
0"
0#
0$
0&
0(
#625
0!
b0 *
b0 +
1%
#626
b1 *
b1 +
1"
#627
b10 *
b10 +
1#
#628
1!
b11 *
b11 +
0"
1$
#629
0!
b100 *
b100 +
#630
b101 *
b101 +
1"
0#
0%
1&
0'
0)
#631
b110 *
b110 +
#632
b111 *
b111 +
0"
0$
1(
#633
b0 *
b0 +
1#
#634
1!
b1 *
b1 +
1"
#635
0!
b10 *
b10 +
1%
#636
1!
b11 *
b11 +
0"
0#
1$
0&
#637
0!
b100 *
b100 +
1'
#638
1!
b101 *
b101 +
1"
#639
b110 *
b110 +
1#
1)
#640
b111 *
b111 +
0"
0$
0%
0(
#641
0!
b0 *
b0 +
#642
b1 *
b1 +
1"
0#
1&
#643
b10 *
b10 +
#644
b11 *
b11 +
0"
1$
0'
#645
1!
b100 *
b100 +
1#
1%
#646
0!
b101 *
b101 +
1"
#647
b110 *
b110 +
#648
b111 *
b111 +
0"
0#
0$
0&
1(
0)
#649
b0 *
b0 +
#650
b1 *
b1 +
1"
0%
#651
b10 *
b10 +
1#
1'
#652
b11 *
b11 +
0"
1$
#653
b100 *
b100 +
#654
1!
b101 *
b101 +
1"
0#
1&
#655
b110 *
b110 +
1%
#656
0!
b111 *
b111 +
0"
0$
0(
#657
b0 *
b0 +
1#
1)
#658
1!
b1 *
b1 +
1"
0'
#659
0!
b10 *
b10 +
#660
b11 *
b11 +
0"
0#
1$
0%
0&
#661
b100 *
b100 +
#662
b101 *
b101 +
1"
#663
b110 *
b110 +
1#
#664
1!
b111 *
b111 +
0"
0$
1(
#665
0!
b0 *
b0 +
1%
1'
#666
b1 *
b1 +
1"
0#
1&
0)
#667
b10 *
b10 +
#668
1!
b11 *
b11 +
0"
1$
#669
b100 *
b100 +
1#
#670
b101 *
b101 +
1"
0%
#671
b110 *
b110 +
#672
0!
b111 *
b111 +
0"
0#
0$
0&
0'
0(
#673
b0 *
b0 +
#674
b1 *
b1 +
1"
#675
b10 *
b10 +
1#
1%
1)
#676
1!
b11 *
b11 +
0"
1$
#677
0!
b100 *
b100 +
#678
b101 *
b101 +
1"
0#
1&
#679
b110 *
b110 +
1'
#680
1!
b111 *
b111 +
0"
0$
0%
1(
#681
0!
b0 *
b0 +
1#
#682
1!
b1 *
b1 +
1"
#683
0!
b10 *
b10 +
#684
b11 *
b11 +
0"
0#
1$
0&
0)
#685
b100 *
b100 +
1%
#686
b101 *
b101 +
1"
0'
#687
1!
b110 *
b110 +
1#
#688
0!
b111 *
b111 +
0"
0$
0(
#689
b0 *
b0 +
#690
b1 *
b1 +
1"
0#
0%
1&
#691
b10 *
b10 +
#692
b11 *
b11 +
0"
1$
#693
1!
b100 *
b100 +
1#
1'
1)
#694
b101 *
b101 +
1"
#695
0!
b110 *
b110 +
1%
#696
1!
b111 *
b111 +
0"
0#
0$
0&
1(
#697
0!
b0 *
b0 +
#698
b1 *
b1 +
1"
#699
b10 *
b10 +
1#
#700
b11 *
b11 +
0"
1$
0%
0'
#701
b100 *
b100 +
#702
b101 *
b101 +
1"
0#
1&
0)
#703
1!
b110 *
b110 +
#704
0!
b111 *
b111 +
0"
0$
0(
#705
b0 *
b0 +
1#
1%
#706
1!
b1 *
b1 +
1"
#707
0!
b10 *
b10 +
1'
#708
1!
b11 *
b11 +
0"
0#
1$
0&
#709
0!
b100 *
b100 +
#710
1!
b101 *
b101 +
1"
0%
#711
0!
b110 *
b110 +
1#
1)
#712
1!
b111 *
b111 +
0"
0$
1(
#713
0!
b0 *
b0 +
#714
b1 *
b1 +
1"
0#
1&
0'
#715
b10 *
b10 +
1%
#716
1!
b11 *
b11 +
0"
1$
#717
b100 *
b100 +
1#
#718
0!
b101 *
b101 +
1"
#719
1!
b110 *
b110 +
#720
0!
b111 *
b111 +
0"
0#
0$
0%
0&
0(
0)
#721
b0 *
b0 +
1'
#722
b1 *
b1 +
1"
#723
b10 *
b10 +
1#
#724
b11 *
b11 +
0"
1$
#725
b100 *
b100 +
1%
#726
1!
b101 *
b101 +
1"
0#
1&
#727
0!
b110 *
b110 +
#728
b111 *
b111 +
0"
0$
0'
1(
#729
b0 *
b0 +
1#
1)
#730
1!
b1 *
b1 +
1"
0%
#731
0!
b10 *
b10 +
#732
b11 *
b11 +
0"
0#
1$
0&
#733
b100 *
b100 +
