misc/articulos/impvl/src/and/and_tres.vcd
$date
	Sun Dec 12 20:12:05 2004
$end
$version
	Icarus Verilog
$end
$timescale
	1s
$end
$scope module and_tres_tb $end
$var wire 1 ! y $end
$var reg 1 " a $end
$var reg 1 # b $end
$var reg 1 $ c $end
$scope module Uand_tres_tb $end
$var wire 1 " a $end
$var wire 1 # b $end
$var wire 1 $ c $end
$var reg 1 ! y $end
$upscope $end
$upscope $end
$enddefinitions $end
#0
$dumpvars
0$
0#
0"
0!
$end
#1
1"
#2
0"
1#
#3
1"
#4
0"
0#
1$
#5
1"
#6
0"
1#
#7
1!
1"
#8
0!
0"
0#
0$
#9
1"
#10
0"
1#
#11
1"
#12
0"
0#
1$
#13
1"
#14
0"
1#
#15
1!
1"
#16
0!
0"
0#
0$
#17
1"
#18
0"
1#
#19
1"
#20
0"
0#
1$
#21
1"
#22
0"
1#
#23
1!
1"
#24
0!
0"
0#
0$
#25
1"
#26
0"
1#
#27
1"
#28
0"
0#
1$
#29
1"
#30
0"
1#
#31
1!
1"
#32
0!
0"
0#
0$
#33
1"
#34
0"
1#
#35
1"
#36
0"
0#
1$
#37
1"
#38
0"
1#
#39
1!
1"
#40
0!
0"
0#
0$
#41
1"
#42
0"
1#
#43
1"
#44
0"
0#
1$
#45
1"
#46
0"
1#
#47
1!
1"
#48
0!
0"
0#
0$
#49
1"
#50
0"
1#
#51
1"
#52
0"
0#
1$
#53
1"
#54
0"
1#
#55
1!
1"
#56
0!
0"
0#
0$
#57
1"
#58
0"
1#
#59
1"
#60
0"
0#
1$
#61
1"
#62
0"
1#
#63
1!
1"
#64
0!
0"
0#
0$
#65
1"
#66
0"
1#
#67
1"
#68
0"
0#
1$
#69
1"
#70
0"
1#
#71
1!
1"
#72
0!
0"
0#
0$
#73
1"
#74
0"
1#
#75
1"
#76
0"
0#
1$
#77
1"
#78
0"
1#
#79
1!
1"
#80
0!
0"
0#
0$
#81
1"
#82
0"
1#
#83
1"
#84
0"
0#
1$
#85
1"
#86
0"
1#
#87
1!
1"
#88
0!
0"
0#
0$
#89
1"
#90
0"
1#
#91
1"
#92
0"
0#
1$
#93
1"
#94
0"
1#
#95
1!
1"
#96
0!
0"
0#
0$
#97
1"
#98
0"
1#
#99
1"
#100
0"
0#
1$
#101
1"
#102
0"
1#
#103
1!
1"
#104
0!
0"
0#
0$
#105
1"
#106
0"
1#
#107
1"
#108
0"
0#
1$
#109
1"
#110
0"
1#
#111
1!
1"
#112
0!
0"
0#
0$
#113
1"
#114
0"
1#
#115
1"
#116
0"
0#
1$
#117
1"
#118
0"
1#
#119
1!
1"
#120
0!
0"
0#
0$
#121
1"
#122
0"
1#
#123
1"
#124
0"
0#
1$
#125
1"
#126
0"
1#
#127
1!
1"
#128
0!
0"
0#
0$
#129
1"
#130
0"
1#
#131
1"
#132
0"
0#
1$
#133
1"
#134
0"
1#
#135
1!
1"
#136
0!
0"
0#
0$
#137
1"
#138
0"
1#
#139
1"
#140
0"
0#
1$
#141
1"
#142
0"
1#
#143
1!
1"
#144
0!
0"
0#
0$
#145
1"
#146
0"
1#
#147
1"
#148
0"
0#
1$
#149
1"
#150
0"
1#
#151
1!
1"
#152
0!
0"
0#
0$
#153
1"
#154
0"
1#
#155
1"
#156
0"
0#
1$
#157
1"
#158
0"
1#
#159
1!
1"
#160
0!
0"
0#
0$
#161
1"
#162
0"
1#
#163
1"
#164
0"
0#
1$
#165
1"
#166
0"
1#
#167
1!
1"
#168
0!
0"
0#
0$
#169
1"
#170
0"
1#
#171
1"
#172
0"
0#
1$
#173
1"
#174
0"
1#
#175
1!
1"
#176
0!
0"
0#
0$
#177
1"
#178
0"
1#
#179
1"
#180
0"
0#
1$
#181
1"
#182
0"
1#
#183
1!
1"
#184
0!
0"
0#
0$
#185
1"
#186
0"
1#
#187
1"
#188
0"
0#
1$
#189
1"
#190
0"
1#
#191
1!
1"
#192
0!
0"
0#
0$
#193
1"
#194
0"
1#
#195
1"
#196
0"
0#
1$
#197
1"
#198
0"
1#
#199
1!
1"
#200
0!
0"
0#
0$
#201
1"
#202
0"
1#
#203
1"
#204
0"
0#
1$
#205
1"
#206
0"
1#
#207
1!
1"
#208
0!
0"
0#
0$
#209
1"
#210
0"
1#
#211
1"
#212
0"
0#
1$
#213
1"
#214
0"
1#
#215
1!
1"
#216
0!
0"
0#
0$
#217
1"
#218
0"
1#
#219
1"
#220
0"
0#
1$
#221
1"
#222
0"
1#
#223
1!
1"
#224
0!
0"
0#
0$
#225
1"
#226
0"
1#
#227
1"
#228
0"
0#
1$
#229
1"
#230
0"
1#
#231
1!
1"
#232
0!
0"
0#
0$
#233
1"
#234
0"
1#
#235
1"
#236
0"
0#
1$
#237
1"
#238
0"
1#
#239
1!
1"
#240
0!
0"
0#
0$
#241
1"
#242
0"
1#
#243
1"
#244
0"
0#
1$
#245
1"
#246
0"
1#
#247
1!
1"
#248
0!
0"
0#
0$
#249
1"
#250
0"
1#
#251
1"
#252
0"
0#
1$
#253
1"
#254
0"
1#
#255
1!
1"
#256
0!
0"
0#
0$
#257
1"
#258
0"
1#
#259
1"
#260
0"
0#
1$
#261
1"
#262
0"
1#
#263
1!
1"
#264
0!
0"
0#
0$
#265
1"
#266
0"
1#
#267
1"
#268
0"
0#
1$
#269
1"
#270
0"
1#
#271
1!
1"
#272
0!
0"
0#
0$
#273
1"
#274
0"
1#
#275
1"
#276
0"
0#
1$
#277
1"
#278
0"
1#
#279
1!
1"
#280
0!
0"
0#
0$
#281
1"
#282
0"
1#
#283
1"
#284
0"
0#
1$
#285
1"
#286
0"
1#
#287
1!
1"
#288
0!
0"
0#
0$
#289
1"
#290
0"
1#
#291
1"
#292
0"
0#
1$
#293
1"
#294
0"
1#
#295
1!
1"
#296
0!
0"
0#
0$
#297
1"
#298
0"
1#
#299
1"
#300
0"
0#
1$
#301
1"
#302
0"
1#
#303
1!
1"
#304
0!
0"
0#
0$
#305
1"
#306
0"
1#
#307
1"
#308
0"
0#
1$
#309
1"
#310
0"
1#
#311
1!
1"
#312
0!
0"
0#
0$
#313
1"
#314
0"
1#
#315
1"
#316
0"
0#
1$
#317
1"
#318
0"
1#
#319
1!
1"
#320
0!
0"
0#
0$
#321
1"
#322
0"
1#
#323
1"
#324
0"
0#
1$
#325
1"
#326
0"
1#
#327
1!
1"
#328
0!
0"
0#
0$
#329
1"
#330
0"
1#
#331
1"
#332
0"
0#
1$
#333
1"
#334
0"
1#
#335
1!
1"
#336
0!
0"
0#
0$
#337
1"
#338
0"
1#
#339
1"
#340
0"
0#
1$
#341
1"
#342
0"
1#
#343
1!
1"
#344
0!
0"
0#
0$
#345
1"
#346
0"
1#
#347
1"
#348
0"
0#
1$
#349
1"
#350
0"
1#
#351
1!
1"
#352
0!
0"
0#
0$
#353
1"
#354
0"
1#
#355
1"
#356
0"
0#
1$
#357
1"
#358
0"
1#
#359
1!
1"
#360
0!
0"
0#
0$
#361
1"
#362
0"
1#
#363
1"
#364
0"
0#
1$
#365
1"
#366
0"
1#
#367
1!
1"
#368
0!
0"
0#
0$
#369
1"
#370
0"
1#
#371
1"
#372
0"
0#
1$
#373
1"
#374
0"
1#
#375
1!
1"
#376
0!
0"
0#
0$
#377
1"
#378
0"
1#
#379
1"
#380
0"
0#
1$
#381
1"
#382
0"
1#
#383
1!
1"
#384
0!
0"
0#
0$
#385
1"
#386
0"
1#
#387
1"
#388
0"
0#
1$
#389
1"
#390
0"
1#
#391
1!
1"
#392
0!
0"
0#
0$
#393
1"
#394
0"
1#
#395
1"
#396
0"
0#
1$
#397
1"
#398
0"
1#
#399
1!
1"
#400
0!
0"
0#
0$
#401
1"
#402
0"
1#
#403
1"
#404
0"
0#
1$
#405
1"
#406
0"
1#
#407
1!
1"
#408
0!
0"
0#
0$
#409
1"
#410
0"
1#
#411
1"
#412
0"
0#
1$
#413
1"
#414
0"
1#
#415
1!
1"
#416
0!
0"
0#
0$
#417
1"
#418
0"
1#
#419
1"
#420
0"
0#
1$
#421
1"
#422
0"
1#
#423
1!
1"
#424
0!
0"
0#
0$
#425
1"
#426
0"
1#
#427
1"
#428
0"
0#
1$
#429
1"
#430
0"
1#
#431
1!
1"
#432
0!
0"
0#
0$
#433
1"
#434
0"
1#
#435
1"
#436
0"
0#
1$
#437
1"
#438
0"
1#
#439
1!
1"
#440
0!
0"
0#
0$
#441
1"
#442
0"
1#
#443
1"
#444
0"
0#
1$
#445
1"
#446
0"
1#
#447
1!
1"
#448
0!
0"
0#
0$
#449
1"
#450
0"
1#
#451
1"
#452
0"
0#
1$
#453
1"
#454
0"
1#
#455
1!
1"
#456
0!
0"
0#
0$
#457
1"
#458
0"
1#
#459
1"
#460
0"
0#
1$
#461
1"
#462
0"
1#
#463
1!
1"
#464
0!
0"
0#
0$
#465
1"
#466
0"
1#
#467
1"
#468
0"
0#
1$
#469
1"
#470
0"
1#
#471
1!
1"
#472
0!
0"
0#
0$
#473
1"
#474
0"
1#
#475
1"
#476
0"
0#
1$
#477
1"
#478
0"
1#
#479
1!
1"
#480
0!
0"
0#
0$
#481
1"
#482
0"
1#
#483
1"
#484
0"
0#
1$
#485
1"
#486
0"
1#
#487
1!
1"
#488
0!
0"
0#
0$
#489
1"
#490
0"
1#
#491
1"
#492
0"
0#
1$
#493
1"
#494
0"
1#
#495
1!
1"
#496
0!
0"
0#
0$
#497
1"
#498
0"
1#
#499
1"
#500
0"
0#
1$
#501
1"
#502
0"
1#
#503
1!
1"
#504
0!
0"
0#
0$
#505
1"
#506
0"
1#
#507
1"
#508
0"
0#
1$
#509
1"
#510
0"
1#
#511
1!
1"
#512
0!
0"
0#
0$
#513
1"
#514
0"
1#
#515
1"
#516
0"
0#
1$
#517
1"
#518
0"
1#
#519
1!
1"
#520
0!
0"
0#
0$
#521
1"
#522
0"
1#
#523
1"
#524
0"
0#
1$
#525
1"
#526
0"
1#
#527
1!
1"
#528
0!
0"
0#
0$
#529
1"
#530
0"
1#
#531
1"
#532
0"
0#
1$
#533
1"
#534
0"
1#
#535
1!
1"
#536
0!
0"
0#
0$
#537
1"
#538
0"
1#
#539
1"
#540
0"
0#
1$
#541
1"
#542
0"
1#
#543
1!
1"
#544
0!
0"
0#
0$
#545
1"
#546
0"
1#
#547
1"
#548
0"
0#
1$
#549
1"
#550
0"
1#
#551
1!
1"
#552
0!
0"
0#
0$
#553
1"
#554
0"
1#
#555
1"
#556
0"
0#
1$
#557
1"
#558
0"
1#
#559
1!
1"
#560
0!
0"
0#
0$
#561
1"
#562
0"
1#
#563
1"
#564
0"
0#
1$
#565
1"
#566
0"
1#
#567
1!
1"
#568
0!
0"
0#
0$
#569
1"
#570
0"
1#
#571
1"
#572
0"
0#
1$
#573
1"
#574
0"
1#
#575
1!
1"
#576
0!
0"
0#
0$
#577
1"
#578
0"
1#
#579
1"
#580
0"
0#
1$
#581
1"
#582
0"
1#
#583
1!
1"
#584
0!
0"
0#
0$
#585
1"
#586
0"
1#
#587
1"
#588
0"
0#
1$
#589
1"
#590
0"
1#
#591
1!
1"
#592
0!
0"
0#
0$
#593
1"
#594
0"
1#
#595
1"
#596
0"
0#
1$
#597
1"
#598
0"
1#
#599
1!
1"
