ld2ud/code/ciscud/Alsu16Bits_Lab.vcd
$date
	Thu Dec  3 01:41:33 2009
$end
$version
	Icarus Verilog
$end
$timescale
	1s
$end
$scope module Alsu16Bits_Lab $end
$var wire 1 ! Cy $end
$var wire 1 " Ov $end
$var wire 16 # Respuesta[15:0] $end
$var reg 4 $ Funcion[3:0] $end
$var reg 16 % TuplaA[15:0] $end
$var reg 16 & TuplaB[15:0] $end
$scope module Alsu $end
$var wire 16 ' EntradaA[15:0] $end
$var wire 16 ( EntradaB[15:0] $end
$var wire 4 ) Selector[3:0] $end
$var wire 17 * _s72[16:0] $end
$var wire 17 + _s80[16:0] $end
$var wire 17 , _s84[16:0] $end
$var wire 17 - _s92[16:0] $end
$var wire 17 . _s101[16:0] $end
$var wire 17 / _s109[16:0] $end
$var wire 17 0 _s116[16:0] $end
$var wire 17 1 _s122[16:0] $end
$var wire 17 2 _s129[16:0] $end
$var reg 1 ! Acarreo $end
$var reg 1 " Desbordamiento $end
$var reg 16 3 Salida[15:0] $end
$upscope $end
$upscope $end
$enddefinitions $end
#0
$dumpvars
b0 3
b0x 2
b0x 1
bx0000000000000000 0
bx0000000000000000 /
bx0000000000000000 .
bx0000000000000000 -
bx0000000000000000 ,
bx0000000000000000 +
bx0000000000000000 *
b0 )
b1 (
b1111111111111111 '
b1 &
b1111111111111111 %
b0 $
b0 #
x"
x!
$end
#1
b1 #
bx0000000000000001 *
bx0000000000000001 +
bx0000000000000001 ,
bx0000000000000001 -
bx0000000000000001 .
bx0000000000000001 /
bx0000000000000001 0
b1x 1
b1x 2
b1 3
b1 $
b1 )
#2
b1111111111111110 #
bx1111111111111110 *
bx1111111111111110 +
bx1111111111111110 ,
bx1111111111111110 -
bx1111111111111110 .
bx1111111111111110 /
bx1111111111111110 0
b1111111111111110x 1
b1111111111111110x 2
b1111111111111110 3
b10 $
b10 )
#3
b1111111111111111 #
bx1111111111111111 *
bx1111111111111111 +
bx1111111111111111 ,
bx1111111111111111 -
bx1111111111111111 .
bx1111111111111111 /
bx1111111111111111 0
b1111111111111111x 1
b1111111111111111x 2
b1111111111111111 3
b11 $
b11 )
#4
0!
b1111111111111110 #
b1111111111111110 *
b1111111111111110 +
b1111111111111110 ,
b1111111111111110 -
b1111111111111110 .
b1111111111111110 /
b1111111111111110 0
b11111111111111100 1
b11111111111111100 2
b1111111111111110 3
b100 $
b100 )
#5
1!
b0 #
b10000000000000000 *
b10000000000000000 +
b10000000000000000 ,
b10000000000000000 -
b10000000000000000 .
b10000000000000000 /
b10000000000000000 0
b1 1
b1 2
b0 3
b101 $
b101 )
#6
0!
b1111111111111110 #
b1111111111111110 *
b1111111111111110 +
b1111111111111110 ,
b1111111111111110 -
b1111111111111110 .
b1111111111111110 /
b1111111111111110 0
b11111111111111100 1
b11111111111111100 2
b1111111111111110 3
b110 $
b110 )
#7
1!
b0 #
b10000000000000000 *
b10000000000000000 +
b10000000000000000 ,
b10000000000000000 -
b10000000000000000 .
b10000000000000000 /
b10000000000000000 0
b1 1
b1 2
b0 3
b111 $
b111 )
#8
b1111111111111111 #
b11111111111111111 *
b11111111111111111 +
b11111111111111111 ,
b11111111111111111 -
b11111111111111111 .
b11111111111111111 /
b11111111111111111 0
b11111111111111111 1
b11111111111111111 2
b1111111111111111 3
b1000 $
b1000 )
#9
b1001 $
b1001 )
#10
0!
b1111111111111110 #
b1111111111111110 *
b1111111111111110 +
b1111111111111110 ,
b1111111111111110 -
b1111111111111110 .
b1111111111111110 /
b1111111111111110 0
b11111111111111100 1
b11111111111111100 2
b1111111111111110 3
b1010 $
b1010 )
#11
b1011 $
b1011 )
#12
1!
b11111111111111110 *
b11111111111111110 +
b11111111111111110 ,
b11111111111111110 -
b11111111111111110 .
b11111111111111110 /
b11111111111111110 0
b11111111111111101 1
b11111111111111101 2
b1100 $
b1100 )
#13
b1111111111111111 #
b11111111111111111 *
b11111111111111111 +
b11111111111111111 ,
b11111111111111111 -
b11111111111111111 .
b11111111111111111 /
b11111111111111111 0
b11111111111111111 1
b11111111111111111 2
b1111111111111111 3
b1101 $
b1101 )
#14
b111111111111111 #
b10111111111111111 *
b10111111111111111 +
b10111111111111111 ,
b10111111111111111 -
b10111111111111111 .
b10111111111111111 /
b10111111111111111 0
b1111111111111111 1
b1111111111111111 2
b111111111111111 3
b1110 $
b1110 )
#15
b1111111111111111 #
b11111111111111111 *
b11111111111111111 +
b11111111111111111 ,
b11111111111111111 -
b11111111111111111 .
b11111111111111111 /
b11111111111111111 0
b11111111111111111 1
b11111111111111111 2
b1111111111111111 3
b1111 $
b1111 )
#16
b0 $
b0 )
b111 %
b111 '
b1111111111111000 #
b11111111111111000 *
b11111111111111000 +
b11111111111111000 ,
b11111111111111000 -
b11111111111111000 .
b11111111111111000 /
b11111111111111000 0
b11111111111110001 1
b11111111111110001 2
b1111111111111000 3
#17
b1 #
b10000000000000001 *
b10000000000000001 +
b10000000000000001 ,
b10000000000000001 -
b10000000000000001 .
b10000000000000001 /
b10000000000000001 0
b11 1
b11 2
b1 3
b1 $
b1 )
#18
b110 #
b10000000000000110 *
b10000000000000110 +
b10000000000000110 ,
b10000000000000110 -
b10000000000000110 .
b10000000000000110 /
b10000000000000110 0
b1101 1
b1101 2
b110 3
b10 $
b10 )
#19
b111 #
b10000000000000111 *
b10000000000000111 +
b10000000000000111 ,
b10000000000000111 -
b10000000000000111 .
b10000000000000111 /
b10000000000000111 0
b1111 1
b1111 2
b111 3
b11 $
b11 )
#20
0!
b110 #
b110 *
b110 +
b110 ,
b110 -
b110 .
b110 /
b110 0
b1100 1
b1100 2
b110 3
b100 $
b100 )
#21
b1000 #
b1000 *
b1000 +
b1000 ,
b1000 -
b1000 .
b1000 /
b1000 0
b10000 1
b10000 2
b1000 3
b101 $
b101 )
#22
b110 #
b110 *
b110 +
b110 ,
b110 -
b110 .
b110 /
b110 0
b1100 1
b1100 2
b110 3
b110 $
b110 )
#23
b1000 #
b1000 *
b1000 +
b1000 ,
b1000 -
b1000 .
b1000 /
b1000 0
b10000 1
b10000 2
b1000 3
b111 $
b111 )
#24
b111 #
b111 *
b111 +
b111 ,
b111 -
b111 .
b111 /
b111 0
b1110 1
b1110 2
b111 3
b1000 $
b1000 )
#25
b1001 $
b1001 )
#26
b110 #
b110 *
b110 +
b110 ,
b110 -
b110 .
b110 /
b110 0
b1100 1
b1100 2
b110 3
b1010 $
b1010 )
#27
b1011 $
b1011 )
#28
b1110 #
b1110 *
b1110 +
b1110 ,
b1110 -
b1110 .
b1110 /
b1110 0
b11100 1
b11100 2
b1110 3
b1100 $
b1100 )
#29
b1101 $
b1101 )
#30
b11 #
b11 3
1!
b10000000000000011 *
b10000000000000011 +
b10000000000000011 ,
b10000000000000011 -
b10000000000000011 .
b10000000000000011 /
b10000000000000011 0
b111 1
b111 2
b1110 $
b1110 )
#31
b1000000000000011 #
b11000000000000011 *
b11000000000000011 +
b11000000000000011 ,
b11000000000000011 -
b11000000000000011 .
b11000000000000011 /
b11000000000000011 0
b10000000000000111 1
b10000000000000111 2
b1000000000000011 3
b1111 $
b1111 )
#32
b1111111111111000 #
b11111111111111000 *
b11111111111111000 +
b11111111111111000 ,
b11111111111111000 -
b11111111111111000 .
b11111111111111000 /
b11111111111111000 0
b11111111111110001 1
b11111111111110001 2
b1111111111111000 3
b0 $
b0 )
#33
b1 #
b10000000000000001 *
b10000000000000001 +
b10000000000000001 ,
b10000000000000001 -
b10000000000000001 .
b10000000000000001 /
b10000000000000001 0
b11 1
b11 2
b1 3
b1 $
b1 )
